chisq
…
ℹ Use `spec()` to retrieve the full column specification for this data.
ℹ Specify the column types or set `show_col_types = FALSE` to quiet this message.

Для начала нам нужно создать таблицу сопряженности (contingency table) для двух переменных с помощью встроенной функции table(). Эта функция похожа на count() из пакета {dplyr}.

gender_publisher <- heroes %>%
  drop_na(Gender) %>%
  filter(Publisher %in% c("Marvel Comics", "DC Comics")) %>%
  select(Gender, Publisher)

gender_publisher

# A tibble: 577 × 2
   Gender Publisher    
   <chr>  <chr>        
 1 Male   Marvel Comics
 2 Male   DC Comics    
 3 Male   Marvel Comics
 4 Male   Marvel Comics
 5 Male   Marvel Comics
 6 Male   DC Comics    
 7 Female Marvel Comics
 8 Male   Marvel Comics
 9 Male   Marvel Comics
10 Male   Marvel Comics
# ℹ 567 more rows
…
