Анализ данных и статистика в R - 9 Введение в tidyverse
…
Подробнее про импорт данных, в том числе в tidyverse, смотри в @ref(real_data).

##tibble

Когда мы загрузили данные с помощью read_csv(), то мы получили tibble, а не data.frame:

class(heroes)

[1] "spec_tbl_df" "tbl_df"      "tbl"         "data.frame" 

Тиббл (tibble) - это такой “усовершенствованный” data.frame. Почти все, что работает с data.frame, работает и с тибблами. Однако у тибблов есть свои дополнительные фишки. Самая очевидная из них - более аккуратный вывод в консоль:

heroes

# A tibble: 734 × 11
      X1 name          Gender `Eye color` Race     `Hair color` Height Publisher
   <dbl> <chr>         <chr>  <chr>       <chr>    <chr>         <dbl> <chr>    
 1     0 A-Bomb        Male   yellow      Human    No Hair         203 Marvel C…
 2     1 Abe Sapien    Male   blue        Icthyo … No Hair         191 Dark Hor…
 3     2 Abin Sur      Male   blue        Ungaran  No Hair         185 DC Comics
 4     3 Abomination   Male   green       Human /… No Hair         203 Marvel C…
 5     4 Abraxas       Male   blue        Cosmic … Black            NA Marvel C…
 6     5 Absorbing Man Male   blue        Human    No Hair         193 Marvel C…
 7     6 Adam Monroe   Male   blue        <NA>     Blond            NA NBC - He…
 8     7 Adam Strange  Male   blue        Human    Blond           185 DC Comics
 9     8 Agent 13      Female blue        <NA>     Blond           173 Marvel C…
10     9 Agent Bob     Male   brown       Human    Brown           178 Marvel C…
# … with 724 more rows, and 3 more variables: `Skin color` <chr>,
#   Alignment <chr>, Weight <dbl>

Выводятся только первые 10 строк, если какие-то колонки не влезают на экран, то они просто перечислены внизу. Ну а тип данных написан прямо под названием колонки.

Функции различных пакетов tidyverse сами конвертируют в тиббл при необходимости. Если же нужно это сделать самостоятельно, то можно это сделать так:

heroes_df <- as.data.frame(heroes) #создаем простой датафрейм
class(heroes_df)

[1] "data.frame"

as_tibble(heroes_df) #превращаем обратно в тиббл

# A tibble: 734 × 11
      X1 name          Gender `Eye color` Race     `Hair color` Height Publisher
   <dbl> <chr>         <chr>  <chr>       <chr>    <chr>         <dbl> <chr>    
 1     0 A-Bomb        Male   yellow      Human    No Hair         203 Marvel C…
 2     1 Abe Sapien    Male   blue        Icthyo … No Hair         191 Dark Hor…
 3     2 Abin Sur      Male   blue        Ungaran  No Hair         185 DC Comics
 4     3 Abomination   Male   green       Human /… No Hair         203 Marvel C…
 5     4 Abraxas       Male   blue        Cosmic … Black            NA Marvel C…
 6     5 Absorbing Man Male   blue        Human    No Hair         193 Marvel C…
 7     6 Adam Monroe   Male   blue        <NA>     Blond            NA NBC - He…
 8     7 Adam Strange  Male   blue        Human    Blond           185 DC Comics
 9     8 Agent 13      Female blue        <NA>     Blond           173 Marvel C…
10     9 Agent Bob     Male   brown       Human    Brown           178 Marvel C…
# … with 724 more rows, and 3 more variables: `Skin color` <chr>,
#   Alignment <chr>, Weight <dbl>
…
Пакет tidyr — это более усовершенствованная версия пакета reshape2, который в свою очередь является усовершенствованной версией reshape. По аналогии с plyr, если вы видите использование этих пакетов, то это указывает на то, что перед вами морально устаревший код.

Код с использованием dplyr и tidyrсильно непохож на то, что мы видели раньше. Большинство функций dplyr и tidyr работают с целым тибблом сразу, принимая его в качестве первого аргумента и возвращая измененный тиббл. Это позволяет превратить весь код в последовательный набор применяемых функций, соединенный пайпами. На практике это выглядит очень элегантно, и вы в этом скоро убедитесь.

9.5 Работа с колонками тиббла

9.5.1 Выбор колонок: dplyr::select()

Функция dplyr::select() позволяет выбирать колонки по номеру или имени (кавычки не нужны).

heroes %>%
  select(1,5)

# A tibble: 734 × 2
      X1 Race             
   <dbl> <chr>            
 1     0 Human            
 2     1 Icthyo Sapien    
 3     2 Ungaran          
 4     3 Human / Radiation
 5     4 Cosmic Entity    
 6     5 Human            
 7     6 <NA>             
 8     7 Human            
 9     8 <NA>             
10     9 Human            
# … with 724 more rows

heroes %>%
  select(name, Race, Publisher, `Hair color`)

# A tibble: 734 × 4
   name          Race              Publisher         `Hair color`
   <chr>         <chr>             <chr>             <chr>       
 1 A-Bomb        Human             Marvel Comics     No Hair     
 2 Abe Sapien    Icthyo Sapien     Dark Horse Comics No Hair     
 3 Abin Sur      Ungaran           DC Comics         No Hair     
 4 Abomination   Human / Radiation Marvel Comics     No Hair     
 5 Abraxas       Cosmic Entity     Marvel Comics     Black       
 6 Absorbing Man Human             Marvel Comics     No Hair     
 7 Adam Monroe   <NA>              NBC - Heroes      Blond       
 8 Adam Strange  Human             DC Comics         Blond       
 9 Agent 13      <NA>              Marvel Comics     Blond       
10 Agent Bob     Human             Marvel Comics     Brown       
# … with 724 more rows

Обратите внимание, если в названии колонки присутствует пробел или, например, колонка начинается с цифры или точки и цифры, то это синтаксически невалидное имя (@ref(variables)). Это не значит, что такие названия колонок недопустимы. Но такие названия колонок нужно обособлять ` грависом (правый штрих, на клавиатуре находится там же где и буква ё и ~).

Еще обратите внимание на то, что функции tidyverse не изменяют сами изначальные тибблы/датафреймы. Это означает, что если вы хотите полученный результат сохранить, то нужно добавить присвоение:

heroes_some_cols <- heroes %>%
  select(name, Race, Publisher, `Hair color`)
heroes_some_cols

# A tibble: 734 × 4
   name          Race              Publisher         `Hair color`
   <chr>         <chr>             <chr>             <chr>       
 1 A-Bomb        Human             Marvel Comics     No Hair     
 2 Abe Sapien    Icthyo Sapien     Dark Horse Comics No Hair     
 3 Abin Sur      Ungaran           DC Comics         No Hair     
 4 Abomination   Human / Radiation Marvel Comics     No Hair     
 5 Abraxas       Cosmic Entity     Marvel Comics     Black       
 6 Absorbing Man Human             Marvel Comics     No Hair     
 7 Adam Monroe   <NA>              NBC - Heroes      Blond       
 8 Adam Strange  Human             DC Comics         Blond       
 9 Agent 13      <NA>              Marvel Comics     Blond       
10 Agent Bob     Human             Marvel Comics     Brown       
# … with 724 more rows

9.5.2 Мини-язык tidyselect для выбора колонок

Для выбора столбцов (не только в select(), но и для других функций tidyverse) используется специальный мини-язык tidyselect из одноименного пакета5. tidyselect дает очень широкие возможности для выбора колонок.

Можно использовать оператор : для выбора нескольких соседних колонок (по аналогии с созданием числового вектора с шагом 1).

heroes %>%
  select(name:Publisher)

# A tibble: 734 × 7
   name          Gender `Eye color` Race           `Hair color` Height Publisher
   <chr>         <chr>  <chr>       <chr>          <chr>         <dbl> <chr>    
 1 A-Bomb        Male   yellow      Human          No Hair         203 Marvel C…
 2 Abe Sapien    Male   blue        Icthyo Sapien  No Hair         191 Dark Hor…
 3 Abin Sur      Male   blue        Ungaran        No Hair         185 DC Comics
 4 Abomination   Male   green       Human / Radia… No Hair         203 Marvel C…
 5 Abraxas       Male   blue        Cosmic Entity  Black            NA Marvel C…
 6 Absorbing Man Male   blue        Human          No Hair         193 Marvel C…
 7 Adam Monroe   Male   blue        <NA>           Blond            NA NBC - He…
 8 Adam Strange  Male   blue        Human          Blond           185 DC Comics
 9 Agent 13      Female blue        <NA>           Blond           173 Marvel C…
10 Agent Bob     Male   brown       Human          Brown           178 Marvel C…
# … with 724 more rows

heroes %>%
  select(name:`Eye color`, Publisher:Weight)

# A tibble: 734 × 7
   name          Gender `Eye color` Publisher      `Skin color` Alignment Weight
   <chr>         <chr>  <chr>       <chr>          <chr>        <chr>      <dbl>
 1 A-Bomb        Male   yellow      Marvel Comics  <NA>         good         441
 2 Abe Sapien    Male   blue        Dark Horse Co… blue         good          65
 3 Abin Sur      Male   blue        DC Comics      red          good          90
 4 Abomination   Male   green       Marvel Comics  <NA>         bad          441
 5 Abraxas       Male   blue        Marvel Comics  <NA>         bad           NA
 6 Absorbing Man Male   blue        Marvel Comics  <NA>         bad          122
 7 Adam Monroe   Male   blue        NBC - Heroes   <NA>         good          NA
 8 Adam Strange  Male   blue        DC Comics      <NA>         good          88
 9 Agent 13      Female blue        Marvel Comics  <NA>         good          61
10 Agent Bob     Male   brown       Marvel Comics  <NA>         good          81
# … with 724 more rows

Используя ! можно вырезать ненужные колонки.

heroes %>%
  select(!X1)

# A tibble: 734 × 10
   name      Gender `Eye color` Race  `Hair color` Height Publisher `Skin color`
   <chr>     <chr>  <chr>       <chr> <chr>         <dbl> <chr>     <chr>       
 1 A-Bomb    Male   yellow      Human No Hair         203 Marvel C… <NA>        
 2 Abe Sapi… Male   blue        Icth… No Hair         191 Dark Hor… blue        
 3 Abin Sur  Male   blue        Unga… No Hair         185 DC Comics red         
 4 Abominat… Male   green       Huma… No Hair         203 Marvel C… <NA>        
 5 Abraxas   Male   blue        Cosm… Black            NA Marvel C… <NA>        
 6 Absorbin… Male   blue        Human No Hair         193 Marvel C… <NA>        
 7 Adam Mon… Male   blue        <NA>  Blond            NA NBC - He… <NA>        
 8 Adam Str… Male   blue        Human Blond           185 DC Comics <NA>        
 9 Agent 13  Female blue        <NA>  Blond           173 Marvel C… <NA>        
10 Agent Bob Male   brown       Human Brown           178 Marvel C… <NA>        
# … with 724 more rows, and 2 more variables: Alignment <chr>, Weight <dbl>

heroes %>%
  select(!(Gender:Height))

# A tibble: 734 × 6
      X1 name          Publisher         `Skin color` Alignment Weight
   <dbl> <chr>         <chr>             <chr>        <chr>      <dbl>
 1     0 A-Bomb        Marvel Comics     <NA>         good         441
 2     1 Abe Sapien    Dark Horse Comics blue         good          65
 3     2 Abin Sur      DC Comics         red          good          90
 4     3 Abomination   Marvel Comics     <NA>         bad          441
 5     4 Abraxas       Marvel Comics     <NA>         bad           NA
 6     5 Absorbing Man Marvel Comics     <NA>         bad          122
 7     6 Adam Monroe   NBC - Heroes      <NA>         good          NA
 8     7 Adam Strange  DC Comics         <NA>         good          88
 9     8 Agent 13      Marvel Comics     <NA>         good          61
10     9 Agent Bob     Marvel Comics     <NA>         good          81
# … with 724 more rows

Другие известные нам логические операторы (& и |) тоже работают в tidyselect.

В дополнение к логическим операторам и :, в tidyselect есть набор вспомогательных функций, работающих исключительно в контексте выбора колонок с помощью tidyselect.

Вспомогательная функция last_col() позволит обратиться к последней колонке тиббла:

heroes %>%
  select(name:last_col())

# A tibble: 734 × 10
   name      Gender `Eye color` Race  `Hair color` Height Publisher `Skin color`
   <chr>     <chr>  <chr>       <chr> <chr>         <dbl> <chr>     <chr>       
 1 A-Bomb    Male   yellow      Human No Hair         203 Marvel C… <NA>        
 2 Abe Sapi… Male   blue        Icth… No Hair         191 Dark Hor… blue        
 3 Abin Sur  Male   blue        Unga… No Hair         185 DC Comics red         
 4 Abominat… Male   green       Huma… No Hair         203 Marvel C… <NA>        
 5 Abraxas   Male   blue        Cosm… Black            NA Marvel C… <NA>        
 6 Absorbin… Male   blue        Human No Hair         193 Marvel C… <NA>        
 7 Adam Mon… Male   blue        <NA>  Blond            NA NBC - He… <NA>        
 8 Adam Str… Male   blue        Human Blond           185 DC Comics <NA>        
 9 Agent 13  Female blue        <NA>  Blond           173 Marvel C… <NA>        
10 Agent Bob Male   brown       Human Brown           178 Marvel C… <NA>        
# … with 724 more rows, and 2 more variables: Alignment <chr>, Weight <dbl>

А функция everything() позволяет выбрать все колонки.

heroes %>%
  select(everything())

# A tibble: 734 × 11
      X1 name          Gender `Eye color` Race     `Hair color` Height Publisher
   <dbl> <chr>         <chr>  <chr>       <chr>    <chr>         <dbl> <chr>    
 1     0 A-Bomb        Male   yellow      Human    No Hair         203 Marvel C…
 2     1 Abe Sapien    Male   blue        Icthyo … No Hair         191 Dark Hor…
 3     2 Abin Sur      Male   blue        Ungaran  No Hair         185 DC Comics
 4     3 Abomination   Male   green       Human /… No Hair         203 Marvel C…
 5     4 Abraxas       Male   blue        Cosmic … Black            NA Marvel C…
 6     5 Absorbing Man Male   blue        Human    No Hair         193 Marvel C…
 7     6 Adam Monroe   Male   blue        <NA>     Blond            NA NBC - He…
 8     7 Adam Strange  Male   blue        Human    Blond           185 DC Comics
 9     8 Agent 13      Female blue        <NA>     Blond           173 Marvel C…
10     9 Agent Bob     Male   brown       Human    Brown           178 Marvel C…
# … with 724 more rows, and 3 more variables: `Skin color` <chr>,
#   Alignment <chr>, Weight <dbl>

При этом everything() не будет дублировать выбранные колонки, поэтому можно использовать everything() для перестановки колонок в тиббле:

heroes %>%
  select(name, Publisher, everything())

# A tibble: 734 × 11
   name          Publisher       X1 Gender `Eye color` Race  `Hair color` Height
   <chr>         <chr>        <dbl> <chr>  <chr>       <chr> <chr>         <dbl>
 1 A-Bomb        Marvel Comi…     0 Male   yellow      Human No Hair         203
 2 Abe Sapien    Dark Horse …     1 Male   blue        Icth… No Hair         191
 3 Abin Sur      DC Comics        2 Male   blue        Unga… No Hair         185
 4 Abomination   Marvel Comi…     3 Male   green       Huma… No Hair         203
 5 Abraxas       Marvel Comi…     4 Male   blue        Cosm… Black            NA
 6 Absorbing Man Marvel Comi…     5 Male   blue        Human No Hair         193
 7 Adam Monroe   NBC - Heroes     6 Male   blue        <NA>  Blond            NA
 8 Adam Strange  DC Comics        7 Male   blue        Human Blond           185
 9 Agent 13      Marvel Comi…     8 Female blue        <NA>  Blond           173
10 Agent Bob     Marvel Comi…     9 Male   brown       Human Brown           178
# … with 724 more rows, and 3 more variables: `Skin color` <chr>,
#   Alignment <chr>, Weight <dbl>

Впрочем, для перестановки колонок удобнее использовать специальную функцию relocate() (@ref(tidy_relocate)) Можно даже выбирать колонки по паттернам в названиях. Например, с помощью ends_with() можно выбрать все колонки, заканчивающиеся одинаковым суффиксом:

heroes %>%
  select(ends_with("color"))

# A tibble: 734 × 3
   `Eye color` `Hair color` `Skin color`
   <chr>       <chr>        <chr>       
 1 yellow      No Hair      <NA>        
 2 blue        No Hair      blue        
 3 blue        No Hair      red         
 4 green       No Hair      <NA>        
 5 blue        Black        <NA>        
 6 blue        No Hair      <NA>        
 7 blue        Blond        <NA>        
 8 blue        Blond        <NA>        
 9 blue        Blond        <NA>        
10 brown       Brown        <NA>        
# … with 724 more rows

Аналогично, с помощью функции starts_with() можно найти колонки с одинаковым префиксом, с помощью contains() — все колонки с выбранным паттерном в любой части названия колонки6.

heroes %>%
  select(starts_with("Eye") & ends_with("color"))

# A tibble: 734 × 1
   `Eye color`
   <chr>      
 1 yellow     
 2 blue       
 3 blue       
 4 green      
 5 blue       
 6 blue       
 7 blue       
 8 blue       
 9 blue       
10 brown      
# … with 724 more rows

heroes %>%
  select(contains("eight"))

# A tibble: 734 × 2
   Height Weight
    <dbl>  <dbl>
 1    203    441
 2    191     65
 3    185     90
 4    203    441
 5     NA     NA
 6    193    122
 7     NA     NA
 8    185     88
 9    173     61
10    178     81
# … with 724 more rows

Ну и наконец, можно выбирать по содержимому колонок с помощью where(). Это напоминает применение sapply()(@ref(apply_other)) на датафрейме для индексирования колонок: в качестве аргумента для where принимается функция, которая применяется для каждой из колонок, после чего выбираются только те колонки, для которых было получено TRUE.

heroes %>%
  select(where(is.numeric))

# A tibble: 734 × 3
      X1 Height Weight
   <dbl>  <dbl>  <dbl>
 1     0    203    441
 2     1    191     65
 3     2    185     90
 4     3    203    441
 5     4     NA     NA
 6     5    193    122
 7     6     NA     NA
 8     7    185     88
 9     8    173     61
10     9    178     81
# … with 724 more rows

Функция where() дает невиданную мощь. Например, можно выбрать все колонки без NA:

heroes %>%
  select(where(function(x) !any(is.na(x))))

# A tibble: 734 × 3
      X1 name          Publisher        
   <dbl> <chr>         <chr>            
 1     0 A-Bomb        Marvel Comics    
 2     1 Abe Sapien    Dark Horse Comics
 3     2 Abin Sur      DC Comics        
 4     3 Abomination   Marvel Comics    
 5     4 Abraxas       Marvel Comics    
 6     5 Absorbing Man Marvel Comics    
 7     6 Adam Monroe   NBC - Heroes     
 8     7 Adam Strange  DC Comics        
 9     8 Agent 13      Marvel Comics    
10     9 Agent Bob     Marvel Comics    
# … with 724 more rows

###Переименование колонок: dplyr::rename()

Внутри select() можно не только выбирать колонки, но и переименовывать их:

heroes %>%
  select(id = X1)

# A tibble: 734 × 1
      id
   <dbl>
 1     0
 2     1
 3     2
 4     3
 5     4
 6     5
 7     6
 8     7
 9     8
10     9
# … with 724 more rows

Однако удобнее для этого использовать специальную функцию dplyr::rename(). Синтаксис у нее такой же, как и у select(), но rename() не выбрасывает колонки, которые не были упомянуты.

heroes %>%
  rename(id = X1)

# A tibble: 734 × 11
      id name          Gender `Eye color` Race     `Hair color` Height Publisher
   <dbl> <chr>         <chr>  <chr>       <chr>    <chr>         <dbl> <chr>    
 1     0 A-Bomb        Male   yellow      Human    No Hair         203 Marvel C…
 2     1 Abe Sapien    Male   blue        Icthyo … No Hair         191 Dark Hor…
 3     2 Abin Sur      Male   blue        Ungaran  No Hair         185 DC Comics
 4     3 Abomination   Male   green       Human /… No Hair         203 Marvel C…
 5     4 Abraxas       Male   blue        Cosmic … Black            NA Marvel C…
 6     5 Absorbing Man Male   blue        Human    No Hair         193 Marvel C…
 7     6 Adam Monroe   Male   blue        <NA>     Blond            NA NBC - He…
 8     7 Adam Strange  Male   blue        Human    Blond           185 DC Comics
 9     8 Agent 13      Female blue        <NA>     Blond           173 Marvel C…
10     9 Agent Bob     Male   brown       Human    Brown           178 Marvel C…
# … with 724 more rows, and 3 more variables: `Skin color` <chr>,
#   Alignment <chr>, Weight <dbl>
…
