6 Импорт и экспорт данных – Анализ данных и статистика в R
…
После этого откроется окно в веб-браузере, в котором Google будет спрашивать, доверяете ли вы R и готовы ли дать ему доступ к чтению таблицы (разумеется, отвечаем, что да). Это нужно будет сделать всего один раз, так что в дальнейшем нажимать в веб-браузере ничего будет не нужно.

После этого таблица загрузится.

6.8 Быстрый импорт данных

Чтение табличных данных обычно происходит очень быстро. По крайней мере, до тех пор пока ваши данные не содержат очень много значений. Если вы попробуете прочитать с помощью read.csv() таблицу с миллионами строчек, то заметите, что это происходит довольно медленно. Впрочем, эта проблема эффективно решается дополнительными пакетами.

Пакет {readr} (часть базового tidyverse) предлагает функции, очень похожие на стандартные read.csv(), read.csv2() и тому подобные, только в названиях используется нижнее подчеркивание: read_csv() и read_csv2(). Они быстрее и немного удобнее, особенно если вы работаете в tidyverse.

readr::read_csv("data/heroes_information.csv",
         na = c("-", "-99", "NA"))

# A tibble: 734 × 11
    ...1 name          Gender `Eye color` Race     `Hair color` Height Publisher
   <dbl> <chr>         <chr>  <chr>       <chr>    <chr>         <dbl> <chr>    
 1     0 A-Bomb        Male   yellow      Human    No Hair         203 Marvel C…
 2     1 Abe Sapien    Male   blue        Icthyo … No Hair         191 Dark Hor…
 3     2 Abin Sur      Male   blue        Ungaran  No Hair         185 DC Comics
 4     3 Abomination   Male   green       Human /… No Hair         203 Marvel C…
 5     4 Abraxas       Male   blue        Cosmic … Black            NA Marvel C…
 6     5 Absorbing Man Male   blue        Human    No Hair         193 Marvel C…
 7     6 Adam Monroe   Male   blue        <NA>     Blond            NA NBC - He…
 8     7 Adam Strange  Male   blue        Human    Blond           185 DC Comics
 9     8 Agent 13      Female blue        <NA>     Blond           173 Marvel C…
10     9 Agent Bob     Male   brown       Human    Brown           178 Marvel C…
# ℹ 724 more rows
# ℹ 3 more variables: `Skin color` <chr>, Alignment <chr>, Weight <dbl>
Пакет {vroom} — это часть расширенного tidyverse. Начиная с версии 2.0, {readr} использует {vroom} в качестве бэкенда, поэтому по скорости они практически не отличаются. Тем не менее, {vroom} можно использовать и отдельно.

vroom::vroom("data/heroes_information.csv")

New names:
Rows: 734 Columns: 11
── Column specification
──────────────────────────────────────────────────────── Delimiter: "," chr
(8): name, Gender, Eye color, Race, Hair color, Publisher, Skin color, A... dbl
(3): ...1, Height, Weight
ℹ Use `spec()` to retrieve the full column specification for this data. ℹ
Specify the column types or set `show_col_types = FALSE` to quiet this message.
• `` -> `...1`

# A tibble: 734 × 11
    ...1 name          Gender `Eye color` Race     `Hair color` Height Publisher
   <dbl> <chr>         <chr>  <chr>       <chr>    <chr>         <dbl> <chr>    
 1     0 A-Bomb        Male   yellow      Human    No Hair         203 Marvel C…
 2     1 Abe Sapien    Male   blue        Icthyo … No Hair         191 Dark Hor…
 3     2 Abin Sur      Male   blue        Ungaran  No Hair         185 DC Comics
 4     3 Abomination   Male   green       Human /… No Hair         203 Marvel C…
 5     4 Abraxas       Male   blue        Cosmic … Black           -99 Marvel C…
 6     5 Absorbing Man Male   blue        Human    No Hair         193 Marvel C…
 7     6 Adam Monroe   Male   blue        -        Blond           -99 NBC - He…
 8     7 Adam Strange  Male   blue        Human    Blond           185 DC Comics
 9     8 Agent 13      Female blue        -        Blond           173 Marvel C…
10     9 Agent Bob     Male   brown       Human    Brown           178 Marvel C…
# ℹ 724 more rows
# ℹ 3 more variables: `Skin color` <chr>, Alignment <chr>, Weight <dbl>
…
