Анализ данных и статистика в R - 11 Продвинутый tidyverse
…
# A tibble: 3 × 9
  Gender Height_min Height_mean Height_max Height_na_n Weight_min Weight_mean
  <chr>       <dbl>       <dbl>      <dbl>       <int>      <dbl>       <dbl>
1 Female       62.5        175.        366          56         41        78.8
2 Male         15.2        192.        975         147          2       126. 
3 <NA>        108          177.        198          14         39       129. 
# ℹ 2 more variables: Weight_max <dbl>, Weight_na_n <int>

Хотя основное применение функции across() – это массовое подытоживание с помощью summarise(), across() можно использовать и с другими функциями dplyr. Например, можно делать массовые операции с колонками с помощью mutate():

heroes %>%
  mutate(across(where(is.character), as.factor))

# A tibble: 734 × 11
    ...1 name          Gender `Eye color` Race     `Hair color` Height Publisher
   <dbl> <fct>         <fct>  <fct>       <fct>    <fct>         <dbl> <fct>    
 1     0 A-Bomb        Male   yellow      Human    No Hair         203 Marvel C…
 2     1 Abe Sapien    Male   blue        Icthyo … No Hair         191 Dark Hor…
 3     2 Abin Sur      Male   blue        Ungaran  No Hair         185 DC Comics
 4     3 Abomination   Male   green       Human /… No Hair         203 Marvel C…
 5     4 Abraxas       Male   blue        Cosmic … Black            NA Marvel C…
 6     5 Absorbing Man Male   blue        Human    No Hair         193 Marvel C…
 7     6 Adam Monroe   Male   blue        <NA>     Blond            NA NBC - He…
 8     7 Adam Strange  Male   blue        Human    Blond           185 DC Comics
 9     8 Agent 13      Female blue        <NA>     Blond           173 Marvel C…
10     9 Agent Bob     Male   brown       Human    Brown           178 Marvel C…
# ℹ 724 more rows
# ℹ 3 more variables: `Skin color` <fct>, Alignment <fct>, Weight <dbl>
…
