Анализ данных и статистика в R - 14 Грамматика графики {ggplot2}
…
Rows: 142 Columns: 17
── Column specification ────────────────────────────────────────────────────────
Delimiter: "\t"
chr  (2): Country, Design
dbl (15): Study_ID, Data_ID, k, n, outcome_test_cat, Effect_size, SE, Outcom...

ℹ Use `spec()` to retrieve the full column specification for this data.
ℹ Specify the column types or set `show_col_types = FALSE` to quiet this message.

Давайте посмотрим, как устроен датафрейм df:

df

# A tibble: 142 × 17
   Study_ID Data_ID     k Country     n Design      outcome_test_cat Effect_size
      <dbl>   <dbl> <dbl> <chr>   <dbl> <chr>                  <dbl>       <dbl>
 1      1         1     4 UK        483 Control Pr…                0     0.778  
 2      1         1     4 UK        290 Control Pr…                1     0.0771 
 3      1         1     4 UK        290 Control Pr…                1     0.427  
 4      1         1     4 UK        288 Control Pr…                1     0.00519
 5      1         2    13 UK       1017 Control Pr…                0     1.62   
 6      1         2    13 UK       1022 Control Pr…                1     0.915  
 7      1         2    13 UK       1021 Control Pr…                1     0.305  
 8      1         2    13 UK        981 Control Pr…                1     0.719  
 9      1.5       2    13 UK       1024 Control Pr…                1     1.70   
10      1.5       2    13 UK       1023 Control Pr…                1     1.78   
# ℹ 132 more rows
# ℹ 9 more variables: SE <dbl>, Outcome_age <dbl>, quasi_age <dbl>,
#   cpiq_early_age <dbl>, cpiq_age_diff <dbl>, ses_funnel <dbl>,
#   published <dbl>, Male_only <dbl>, Achievement <dbl>
…
