Анализ данных и статистика в R - 24 Задания
…
[1] 22.5 23.5 24.5 25.5 26.5

24.15 Выбор столбцов: dplyr::select()

Для выполнения следующих заданий нам понадобятся датасеты heroes и powers, которые можно загрузить, используя следующие команды:

library(tidyverse)
heroes <- read_csv("https://raw.githubusercontent.com/Pozdniakov/tidy_stats/master/data/heroes_information.csv",
                   na = c("-", "-99"))
powers <- read_csv("https://raw.githubusercontent.com/Pozdniakov/tidy_stats/master/data/super_hero_powers.csv")

Выберете первые 4 столбца в powers.

# A tibble: 667 × 4
   hero_names    Agility `Accelerated Healing` `Lantern Power Ring`
   <chr>         <lgl>   <lgl>                 <lgl>               
 1 3-D Man       TRUE    FALSE                 FALSE               
 2 A-Bomb        FALSE   TRUE                  FALSE               
 3 Abe Sapien    TRUE    TRUE                  FALSE               
 4 Abin Sur      FALSE   FALSE                 TRUE                
 5 Abomination   FALSE   TRUE                  FALSE               
 6 Abraxas       FALSE   FALSE                 FALSE               
 7 Absorbing Man FALSE   FALSE                 FALSE               
 8 Adam Monroe   FALSE   TRUE                  FALSE               
 9 Adam Strange  FALSE   FALSE                 FALSE               
10 Agent Bob     FALSE   FALSE                 FALSE               
# … with 657 more rows

Выберите все столбцы от Reflexes до Empathy в тиббле powers:

# A tibble: 667 × 7
   Reflexes Invulnerability `Energy Constructs` Force …¹ Self-…² Anti-…³ Empathy
   <lgl>    <lgl>           <lgl>               <lgl>    <lgl>   <lgl>   <lgl>  
 1 FALSE    FALSE           FALSE               FALSE    FALSE   FALSE   FALSE  
 2 FALSE    FALSE           FALSE               FALSE    TRUE    FALSE   FALSE  
 3 TRUE     FALSE           FALSE               FALSE    FALSE   FALSE   FALSE  
 4 FALSE    FALSE           FALSE               FALSE    FALSE   FALSE   FALSE  
 5 FALSE    TRUE            FALSE               FALSE    FALSE   FALSE   FALSE  
 6 FALSE    TRUE            FALSE               FALSE    FALSE   FALSE   FALSE  
 7 FALSE    TRUE            FALSE               FALSE    FALSE   FALSE   FALSE  
 8 FALSE    FALSE           FALSE               FALSE    FALSE   FALSE   FALSE  
 9 FALSE    FALSE           FALSE               FALSE    FALSE   FALSE   FALSE  
10 FALSE    FALSE           FALSE               FALSE    FALSE   FALSE   FALSE  
# … with 657 more rows, and abbreviated variable names ¹​`Force Fields`,
#   ²​`Self-Sustenance`, ³​`Anti-Gravity`

Выберите все столбцы тиббла powers кроме первого (hero_names):

# A tibble: 667 × 167
   Agility Accelerated …¹ Lante…² Dimen…³ Cold …⁴ Durab…⁵ Stealth Energ…⁶ Flight
   <lgl>   <lgl>          <lgl>   <lgl>   <lgl>   <lgl>   <lgl>   <lgl>   <lgl> 
 1 TRUE    FALSE          FALSE   FALSE   FALSE   FALSE   FALSE   FALSE   FALSE 
 2 FALSE   TRUE           FALSE   FALSE   FALSE   TRUE    FALSE   FALSE   FALSE 
 3 TRUE    TRUE           FALSE   FALSE   TRUE    TRUE    FALSE   FALSE   FALSE 
 4 FALSE   FALSE          TRUE    FALSE   FALSE   FALSE   FALSE   FALSE   FALSE 
 5 FALSE   TRUE           FALSE   FALSE   FALSE   FALSE   FALSE   FALSE   FALSE 
 6 FALSE   FALSE          FALSE   TRUE    FALSE   FALSE   FALSE   FALSE   TRUE  
 7 FALSE   FALSE          FALSE   FALSE   TRUE    TRUE    FALSE   TRUE    FALSE 
 8 FALSE   TRUE           FALSE   FALSE   FALSE   FALSE   FALSE   FALSE   FALSE 
 9 FALSE   FALSE          FALSE   FALSE   FALSE   TRUE    TRUE    FALSE   TRUE  
10 FALSE   FALSE          FALSE   FALSE   FALSE   FALSE   TRUE    FALSE   FALSE 
# … with 657 more rows, 158 more variables: `Danger Sense` <lgl>,
#   `Underwater breathing` <lgl>, Marksmanship <lgl>, `Weapons Master` <lgl>,
#   `Power Augmentation` <lgl>, `Animal Attributes` <lgl>, Longevity <lgl>,
#   Intelligence <lgl>, `Super Strength` <lgl>, Cryokinesis <lgl>,
#   Telepathy <lgl>, `Energy Armor` <lgl>, `Energy Blasts` <lgl>,
#   Duplication <lgl>, `Size Changing` <lgl>, `Density Control` <lgl>,
#   Stamina <lgl>, `Astral Travel` <lgl>, `Audio Control` <lgl>, …
…
24.17 Сортировка строк: dplyr::arrange()

Выберите из тиббла heroes колонки name, Gender, Height и отсортируйте строчки по возрастанию Height.

# A tibble: 734 × 3
   name            Gender Height
   <chr>           <chr>   <dbl>
 1 Utgard-Loki     Male     15.2
 2 Bloodwraith     Male     30.5
 3 King Kong       Male     30.5
 4 Anti-Monitor    Male     61  
 5 Giganta         Female   62.5
 6 Krypto          Male     64  
 7 Yoda            Male     66  
 8 Jack-Jack       Male     71  
 9 Howard the Duck Male     79  
10 Godzilla        <NA>    108  
# … with 724 more rows

Выберите из тиббла heroes колонки name, Gender, Height и отсортируйте строчки по убыванию Height.

# A tibble: 734 × 3
   name          Gender Height
   <chr>         <chr>   <dbl>
 1 Fin Fang Foom Male     975 
 2 Galactus      Male     876 
 3 Groot         Male     701 
 4 MODOK         Male     366 
 5 Wolfsbane     Female   366 
 6 Onslaught     Male     305 
 7 Sasquatch     Male     305 
 8 Ymir          Male     305.
 9 Rey           Female   297 
10 Juggernaut    Male     287 
# … with 724 more rows

Выберите из тиббла heroes колонки name, Gender, Height и отсортируйте строчки сначала по Gender, затем по убыванию Height.

# A tibble: 734 × 3
   name      Gender Height
   <chr>     <chr>   <dbl>
 1 Wolfsbane Female    366
 2 Rey       Female    297
 3 Bloodaxe  Female    218
 4 Thundra   Female    218
 5 Hela      Female    213
 6 Frenzy    Female    211
 7 She-Hulk  Female    201
 8 Ardina    Female    193
 9 Starfire  Female    193
10 Valkyrie  Female    191
# … with 724 more rows

24.18 Уникальные значения: dplyr::distinct()

Извлеките уникальные значения столбца Eye color из тиббла heroes.

# A tibble: 23 × 1
   `Eye color`
   <chr>      
 1 yellow     
 2 blue       
 3 green      
 4 brown      
 5 <NA>       
 6 red        
 7 violet     
 8 white      
 9 purple     
10 black      
# … with 13 more rows

Извлеките уникальные значения столбца Hair color из тиббла heroes.

# A tibble: 30 × 1
   `Hair color`
   <chr>       
 1 No Hair     
 2 Black       
 3 Blond       
 4 Brown       
 5 <NA>        
 6 White       
 7 Purple      
 8 Orange      
 9 Pink        
10 Red         
# … with 20 more rows

24.19 Создание колонок: dplyr::mutate() и dplyr::transmute()

Создайте колонку height_m с ростом супергероев в метрах, затем выберите только колонки name и height_m.

# A tibble: 734 × 2
   name          height_m
   <chr>            <dbl>
 1 A-Bomb            2.03
 2 Abe Sapien        1.91
 3 Abin Sur          1.85
 4 Abomination       2.03
 5 Abraxas          NA   
 6 Absorbing Man     1.93
 7 Adam Monroe      NA   
 8 Adam Strange      1.85
 9 Agent 13          1.73
10 Agent Bob         1.78
# … with 724 more rows

Создайте новою колонку hair в heroes, в которой будет значение "Bold" для тех супергероев, у которых в колонке Hair.color стоит "No Hair", и значение "Hairy" во всех остальных случаях. Затем выберите только колонки name, Hair color, hair.

# A tibble: 734 × 3
   name          `Hair color` hair 
   <chr>         <chr>        <chr>
 1 A-Bomb        No Hair      Bold 
 2 Abe Sapien    No Hair      Bold 
 3 Abin Sur      No Hair      Bold 
 4 Abomination   No Hair      Bold 
 5 Abraxas       Black        Hairy
 6 Absorbing Man No Hair      Bold 
 7 Adam Monroe   Blond        Hairy
 8 Adam Strange  Blond        Hairy
 9 Agent 13      Blond        Hairy
10 Agent Bob     Brown        Hairy
# … with 724 more rows
…
Затем превратите его обратно в длинный тиббл:

# A tibble: 4 × 3
# Groups:   Gender [2]
  Gender Publisher     weight_mean
  <chr>  <chr>               <dbl>
1 Female DC Comics            76.8
2 Female Marvel Comics        80.1
3 Male   DC Comics           113. 
4 Male   Marvel Comics       134. 

Сделайте powers длинным тибблом с тремя колонками: hero_names, power (названгие суперсилы) и has (наличие суперсилы у данного супергероя).

# A tibble: 111,389 × 3
   hero_names power                 has  
   <chr>      <chr>                 <lgl>
 1 3-D Man    Agility               TRUE 
 2 3-D Man    Accelerated Healing   FALSE
 3 3-D Man    Lantern Power Ring    FALSE
 4 3-D Man    Dimensional Awareness FALSE
 5 3-D Man    Cold Resistance       FALSE
 6 3-D Man    Durability            FALSE
 7 3-D Man    Stealth               FALSE
 8 3-D Man    Energy Absorption     FALSE
 9 3-D Man    Flight                FALSE
10 3-D Man    Danger Sense          FALSE
# … with 111,379 more rows

Сделайте тиббл powers обратно широким, но с новой структурой: каждая строчка означает суперсилу, а каждая колонка - супергероя (за исключением первой колонки - названия суперсилы).

# A tibble: 167 × 668
   power 3-D M…¹ A-Bom…² Abe S…³ Abin …⁴ Abomi…⁵ Abraxas Absor…⁶ Adam …⁷ Adam …⁸
   <chr> <lgl>   <lgl>   <lgl>   <lgl>   <lgl>   <lgl>   <lgl>   <lgl>   <lgl>  
 1 Agil… TRUE    FALSE   TRUE    FALSE   FALSE   FALSE   FALSE   FALSE   FALSE  
 2 Acce… FALSE   TRUE    TRUE    FALSE   TRUE    FALSE   FALSE   TRUE    FALSE  
 3 Lant… FALSE   FALSE   FALSE   TRUE    FALSE   FALSE   FALSE   FALSE   FALSE  
 4 Dime… FALSE   FALSE   FALSE   FALSE   FALSE   TRUE    FALSE   FALSE   FALSE  
 5 Cold… FALSE   FALSE   TRUE    FALSE   FALSE   FALSE   TRUE    FALSE   FALSE  
 6 Dura… FALSE   TRUE    TRUE    FALSE   FALSE   FALSE   TRUE    FALSE   TRUE   
 7 Stea… FALSE   FALSE   FALSE   FALSE   FALSE   FALSE   FALSE   FALSE   TRUE   
 8 Ener… FALSE   FALSE   FALSE   FALSE   FALSE   FALSE   TRUE    FALSE   FALSE  
 9 Flig… FALSE   FALSE   FALSE   FALSE   FALSE   TRUE    FALSE   FALSE   TRUE   
10 Dang… FALSE   FALSE   FALSE   FALSE   FALSE   FALSE   FALSE   FALSE   FALSE  
# … with 157 more rows, 658 more variables: `Agent Bob` <lgl>,
#   `Agent Zero` <lgl>, `Air-Walker` <lgl>, Ajax <lgl>, `Alan Scott` <lgl>,
#   `Alex Mercer` <lgl>, `Alex Woolsly` <lgl>, Alien <lgl>,
#   `Allan Quatermain` <lgl>, Amazo <lgl>, Ammo <lgl>, `Ando Masahashi` <lgl>,
#   Angel <lgl>, `Angel Dust` <lgl>, `Angel Salvadore` <lgl>, Angela <lgl>,
#   `Animal Man` <lgl>, Annihilus <lgl>, `Ant-Man` <lgl>, `Ant-Man II` <lgl>,
#   `Anti-Monitor` <lgl>, `Anti-Spawn` <lgl>, `Anti-Venom` <lgl>, …
…
Для расчета количества значений в строке есть функция nchar(), для расчета индекса (первого) максимального значения есть функция which.max().

# A tibble: 3 × 8
  Gender name                      Eye c…¹ Race  Hair …² Publi…³ Skin …⁴ Align…⁵
  <chr>  <chr>                     <chr>   <chr> <chr>   <chr>   <chr>   <chr>  
1 Female Negasonic Teenage Warhead yellow… Huma… Strawb… Dark H… orange  neutral
2 Male   Drax the Destroyer        yellow… Dath… Strawb… Dark H… orange… neutral
3 <NA>   Captain Universe          yellow… God … Orange… Marvel… grey    neutral
# … with abbreviated variable names ¹​`Eye color`, ²​`Hair color`, ³​Publisher,
#   ⁴​`Skin color`, ⁵​Alignment

Создайте из тиббла heroes новый тиббл, в котором числовые значения Height и Weight заменены на следующие строковые значения: если у супергероя рост или вес выше среднего по колонке, то "выше среднего", если его/ее рост или вес ниже или равен среднему, то "ниже среднего".

# A tibble: 734 × 11
    ...1 name        Gender Eye c…¹ Race  Hair …² Height Publi…³ Skin …⁴ Align…⁵
   <dbl> <chr>       <chr>  <chr>   <chr> <chr>   <chr>  <chr>   <chr>   <chr>  
 1     0 A-Bomb      Male   yellow  Human No Hair выше … Marvel… <NA>    good   
 2     1 Abe Sapien  Male   blue    Icth… No Hair выше … Dark H… blue    good   
 3     2 Abin Sur    Male   blue    Unga… No Hair ниже … DC Com… red     good   
 4     3 Abomination Male   green   Huma… No Hair выше … Marvel… <NA>    bad    
 5     4 Abraxas     Male   blue    Cosm… Black   <NA>   Marvel… <NA>    bad    
 6     5 Absorbing … Male   blue    Human No Hair выше … Marvel… <NA>    bad    
 7     6 Adam Monroe Male   blue    <NA>  Blond   <NA>   NBC - … <NA>    good   
 8     7 Adam Stran… Male   blue    Human Blond   ниже … DC Com… <NA>    good   
 9     8 Agent 13    Female blue    <NA>  Blond   ниже … Marvel… <NA>    good   
10     9 Agent Bob   Male   brown   Human Brown   ниже … Marvel… <NA>    good   
# … with 724 more rows, 1 more variable: Weight <chr>, and abbreviated variable
#   names ¹​`Eye color`, ²​`Hair color`, ³​Publisher, ⁴​`Skin color`, ⁵​Alignment

Создайте из тиббла heroes новый тиббл, в котором числовые значения Height и Weight заменены на следующие строковые значения: если у супергероя внутри соответствующей группы по полу рост или вес выше среднего по колонке, то "выше среднего по X", если его/ее рост или вес ниже или равен среднему внутри соответствующей группы по полу, то "ниже среднего по X" , где X – соответствующий пол (Gender).

# A tibble: 734 × 11
    ...1 name        Gender Eye c…¹ Race  Hair …² Height Publi…³ Skin …⁴ Align…⁵
   <dbl> <chr>       <chr>  <chr>   <chr> <chr>   <chr>  <chr>   <chr>   <chr>  
 1     0 A-Bomb      Male   yellow  Human No Hair выше … Marvel… <NA>    good   
 2     1 Abe Sapien  Male   blue    Icth… No Hair ниже … Dark H… blue    good   
 3     2 Abin Sur    Male   blue    Unga… No Hair ниже … DC Com… red     good   
 4     3 Abomination Male   green   Huma… No Hair выше … Marvel… <NA>    bad    
 5     4 Abraxas     Male   blue    Cosm… Black   NA по… Marvel… <NA>    bad    
 6     5 Absorbing … Male   blue    Human No Hair выше … Marvel… <NA>    bad    
 7     6 Adam Monroe Male   blue    <NA>  Blond   NA по… NBC - … <NA>    good   
 8     7 Adam Stran… Male   blue    Human Blond   ниже … DC Com… <NA>    good   
 9     8 Agent 13    Female blue    <NA>  Blond   ниже … Marvel… <NA>    good   
10     9 Agent Bob   Male   brown   Human Brown   ниже … Marvel… <NA>    good   
# … with 724 more rows, 1 more variable: Weight <chr>, and abbreviated variable
#   names ¹​`Eye color`, ²​`Hair color`, ³​Publisher, ⁴​`Skin color`, ⁵​Alignment
…
