27 Решения заданий – Анализ данных и статистика в R
…
27.15 Выбор столбцов: dplyr::select()

Для выполнения следующих заданий нам понадобятся датасеты heroes и powers, которые можно загрузить, используя следующие команды:

library(tidyverse)
heroes <- read_csv("https://raw.githubusercontent.com/Pozdniakov/tidy_stats/master/data/heroes_information.csv",
                   na = c("-", "-99", "NA"))
powers <- read_csv("https://raw.githubusercontent.com/Pozdniakov/tidy_stats/master/data/super_hero_powers.csv")

Выберете первые 4 столбца в powers.

powers %>%
  select(1:4)

# A tibble: 667 × 4
   hero_names    Agility `Accelerated Healing` `Lantern Power Ring`
   <chr>         <lgl>   <lgl>                 <lgl>               
 1 3-D Man       TRUE    FALSE                 FALSE               
 2 A-Bomb        FALSE   TRUE                  FALSE               
 3 Abe Sapien    TRUE    TRUE                  FALSE               
 4 Abin Sur      FALSE   FALSE                 TRUE                
 5 Abomination   FALSE   TRUE                  FALSE               
 6 Abraxas       FALSE   FALSE                 FALSE               
 7 Absorbing Man FALSE   FALSE                 FALSE               
 8 Adam Monroe   FALSE   TRUE                  FALSE               
 9 Adam Strange  FALSE   FALSE                 FALSE               
10 Agent Bob     FALSE   FALSE                 FALSE               
# ℹ 657 more rows

Выберите все столбцы от Reflexes до Empathy в тиббле powers:

powers %>%
  select(Reflexes:Empathy)

# A tibble: 667 × 7
   Reflexes Invulnerability `Energy Constructs` `Force Fields` `Self-Sustenance`
   <lgl>    <lgl>           <lgl>               <lgl>          <lgl>            
 1 FALSE    FALSE           FALSE               FALSE          FALSE            
 2 FALSE    FALSE           FALSE               FALSE          TRUE             
 3 TRUE     FALSE           FALSE               FALSE          FALSE            
 4 FALSE    FALSE           FALSE               FALSE          FALSE            
 5 FALSE    TRUE            FALSE               FALSE          FALSE            
 6 FALSE    TRUE            FALSE               FALSE          FALSE            
 7 FALSE    TRUE            FALSE               FALSE          FALSE            
 8 FALSE    FALSE           FALSE               FALSE          FALSE            
 9 FALSE    FALSE           FALSE               FALSE          FALSE            
10 FALSE    FALSE           FALSE               FALSE          FALSE            
# ℹ 657 more rows
# ℹ 2 more variables: `Anti-Gravity` <lgl>, Empathy <lgl>

Выберите все столбцы тиббла powers кроме первого (hero_names):

powers %>%
select(!hero_names)

# A tibble: 667 × 167
   Agility `Accelerated Healing` `Lantern Power Ring` `Dimensional Awareness`
   <lgl>   <lgl>                 <lgl>                <lgl>                  
 1 TRUE    FALSE                 FALSE                FALSE                  
 2 FALSE   TRUE                  FALSE                FALSE                  
 3 TRUE    TRUE                  FALSE                FALSE                  
 4 FALSE   FALSE                 TRUE                 FALSE                  
 5 FALSE   TRUE                  FALSE                FALSE                  
 6 FALSE   FALSE                 FALSE                TRUE                   
 7 FALSE   FALSE                 FALSE                FALSE                  
 8 FALSE   TRUE                  FALSE                FALSE                  
 9 FALSE   FALSE                 FALSE                FALSE                  
10 FALSE   FALSE                 FALSE                FALSE                  
# ℹ 657 more rows
# ℹ 163 more variables: `Cold Resistance` <lgl>, Durability <lgl>,
#   Stealth <lgl>, `Energy Absorption` <lgl>, Flight <lgl>,
#   `Danger Sense` <lgl>, `Underwater breathing` <lgl>, Marksmanship <lgl>,
#   `Weapons Master` <lgl>, `Power Augmentation` <lgl>,
#   `Animal Attributes` <lgl>, Longevity <lgl>, Intelligence <lgl>,
#   `Super Strength` <lgl>, Cryokinesis <lgl>, Telepathy <lgl>, …
…
27.17 Сортировка строк: dplyr::arrange()

Выберите из тиббла heroes колонки name, Gender, Height и отсортируйте строчки по возрастанию Height.

heroes %>%
  select(name, Gender, Height) %>%
  arrange(Height)

# A tibble: 734 × 3
   name            Gender Height
   <chr>           <chr>   <dbl>
 1 Utgard-Loki     Male     15.2
 2 Bloodwraith     Male     30.5
 3 King Kong       Male     30.5
 4 Anti-Monitor    Male     61  
 5 Giganta         Female   62.5
 6 Krypto          Male     64  
 7 Yoda            Male     66  
 8 Jack-Jack       Male     71  
 9 Howard the Duck Male     79  
10 Godzilla        <NA>    108  
# ℹ 724 more rows

Выберите из тиббла heroes колонки name, Gender, Height и отсортируйте строчки по убыванию Height.

heroes %>%
  select(name, Gender, Height) %>%
  arrange(desc(Height))

# A tibble: 734 × 3
   name          Gender Height
   <chr>         <chr>   <dbl>
 1 Fin Fang Foom Male     975 
 2 Galactus      Male     876 
 3 Groot         Male     701 
 4 MODOK         Male     366 
 5 Wolfsbane     Female   366 
 6 Onslaught     Male     305 
 7 Sasquatch     Male     305 
 8 Ymir          Male     305.
 9 Rey           Female   297 
10 Juggernaut    Male     287 
# ℹ 724 more rows

Выберите из тиббла heroes колонки name, Gender, Height и отсортируйте строчки сначала по Gender, затем по убыванию Height.

heroes %>%
  select(name, Gender, Height) %>%
  arrange(Gender, desc(Height))

# A tibble: 734 × 3
   name      Gender Height
   <chr>     <chr>   <dbl>
 1 Wolfsbane Female    366
 2 Rey       Female    297
 3 Bloodaxe  Female    218
 4 Thundra   Female    218
 5 Hela      Female    213
 6 Frenzy    Female    211
 7 She-Hulk  Female    201
 8 Ardina    Female    193
 9 Starfire  Female    193
10 Valkyrie  Female    191
# ℹ 724 more rows

27.18 Уникальные значения: dplyr::distinct()

Извлеките уникальные значения столбца Eye color из тиббла heroes.

heroes %>%
  distinct(`Eye color`)

# A tibble: 23 × 1
   `Eye color`
   <chr>      
 1 yellow     
 2 blue       
 3 green      
 4 brown      
 5 <NA>       
 6 red        
 7 violet     
 8 white      
 9 purple     
10 black      
# ℹ 13 more rows

Извлеките уникальные значения столбца Hair color из тиббла heroes.

heroes %>%
  distinct(`Hair color`)

# A tibble: 30 × 1
   `Hair color`
   <chr>       
 1 No Hair     
 2 Black       
 3 Blond       
 4 Brown       
 5 <NA>        
 6 White       
 7 Purple      
 8 Orange      
 9 Pink        
10 Red         
# ℹ 20 more rows

27.19 Создание колонок: dplyr::mutate() и dplyr::transmute()

Создайте колонку height_m с ростом супергероев в метрах, затем выберите только колонки name и height_m.

heroes %>%
  mutate(height_m = Height/100) %>%
  select(name, height_m)

# A tibble: 734 × 2
   name          height_m
   <chr>            <dbl>
 1 A-Bomb            2.03
 2 Abe Sapien        1.91
 3 Abin Sur          1.85
 4 Abomination       2.03
 5 Abraxas          NA   
 6 Absorbing Man     1.93
 7 Adam Monroe      NA   
 8 Adam Strange      1.85
 9 Agent 13          1.73
10 Agent Bob         1.78
# ℹ 724 more rows

Создайте новою колонку hair в heroes, в которой будет значение "Bold" для тех супергероев, у которых в колонке Hair color стоит "No Hair", и значение "Hairy" во всех остальных случаях. Затем выберите только колонки name, Hair color, hair.

heroes %>%
  mutate(hair = if_else(`Hair color` == "No Hair", "Bold", "Hairy")) %>%
  select(name, `Hair color`, hair)

# A tibble: 734 × 3
   name          `Hair color` hair 
   <chr>         <chr>        <chr>
 1 A-Bomb        No Hair      Bold 
 2 Abe Sapien    No Hair      Bold 
 3 Abin Sur      No Hair      Bold 
 4 Abomination   No Hair      Bold 
 5 Abraxas       Black        Hairy
 6 Absorbing Man No Hair      Bold 
 7 Adam Monroe   Blond        Hairy
 8 Adam Strange  Blond        Hairy
 9 Agent 13      Blond        Hairy
10 Agent Bob     Brown        Hairy
# ℹ 724 more rows
…
Сделайте powers длинным тибблом с тремя колонками: hero_names, power (название суперсилы) и has (наличие суперсилы у данного супергероя).

powers %>%
  pivot_longer(cols = !hero_names,
               names_to = "power",
               values_to = "has")

# A tibble: 111,389 × 3
   hero_names power                 has  
   <chr>      <chr>                 <lgl>
 1 3-D Man    Agility               TRUE 
 2 3-D Man    Accelerated Healing   FALSE
 3 3-D Man    Lantern Power Ring    FALSE
 4 3-D Man    Dimensional Awareness FALSE
 5 3-D Man    Cold Resistance       FALSE
 6 3-D Man    Durability            FALSE
 7 3-D Man    Stealth               FALSE
 8 3-D Man    Energy Absorption     FALSE
 9 3-D Man    Flight                FALSE
10 3-D Man    Danger Sense          FALSE
# ℹ 111,379 more rows

Сделайте тиббл powers обратно широким, но с новой структурой: каждая строчка означает суперсилу, а каждая колонка - супергероя (за исключением первой колонки - названия суперсилы).

powers %>%
  pivot_longer(cols = !hero_names,
               names_to = "power",
               values_to = "has") %>%
  pivot_wider(names_from = hero_names,
              values_from = has)

# A tibble: 167 × 668
   power          `3-D Man` `A-Bomb` `Abe Sapien` `Abin Sur` Abomination Abraxas
   <chr>          <lgl>     <lgl>    <lgl>        <lgl>      <lgl>       <lgl>  
 1 Agility        TRUE      FALSE    TRUE         FALSE      FALSE       FALSE  
 2 Accelerated H… FALSE     TRUE     TRUE         FALSE      TRUE        FALSE  
 3 Lantern Power… FALSE     FALSE    FALSE        TRUE       FALSE       FALSE  
 4 Dimensional A… FALSE     FALSE    FALSE        FALSE      FALSE       TRUE   
 5 Cold Resistan… FALSE     FALSE    TRUE         FALSE      FALSE       FALSE  
 6 Durability     FALSE     TRUE     TRUE         FALSE      FALSE       FALSE  
 7 Stealth        FALSE     FALSE    FALSE        FALSE      FALSE       FALSE  
 8 Energy Absorp… FALSE     FALSE    FALSE        FALSE      FALSE       FALSE  
 9 Flight         FALSE     FALSE    FALSE        FALSE      FALSE       TRUE   
10 Danger Sense   FALSE     FALSE    FALSE        FALSE      FALSE       FALSE  
# ℹ 157 more rows
# ℹ 661 more variables: `Absorbing Man` <lgl>, `Adam Monroe` <lgl>,
#   `Adam Strange` <lgl>, `Agent Bob` <lgl>, `Agent Zero` <lgl>,
#   `Air-Walker` <lgl>, Ajax <lgl>, `Alan Scott` <lgl>, `Alex Mercer` <lgl>,
#   `Alex Woolsly` <lgl>, Alien <lgl>, `Allan Quatermain` <lgl>, Amazo <lgl>,
#   Ammo <lgl>, `Ando Masahashi` <lgl>, Angel <lgl>, `Angel Dust` <lgl>,
#   `Angel Salvadore` <lgl>, Angela <lgl>, `Animal Man` <lgl>, …
…
Создайте из тиббла heroes новый тиббл, в котором числовые значения Height и Weight заменены на следующие строковые значения: если у супергероя рост или масса выше среднего по колонке, то "выше среднего", если его/ее рост или масса ниже или равна среднему, то "ниже среднего".

higher_than_average <- function(x) ifelse(x > mean(x, na.rm = TRUE),
                                          "выше среднего",
                                          "ниже среднего")
heroes %>%
  mutate(across(c(Height, Weight), 
                   higher_than_average))

# A tibble: 734 × 11
    ...1 name          Gender `Eye color` Race     `Hair color` Height Publisher
   <dbl> <chr>         <chr>  <chr>       <chr>    <chr>        <chr>  <chr>    
 1     0 A-Bomb        Male   yellow      Human    No Hair      выше … Marvel C…
 2     1 Abe Sapien    Male   blue        Icthyo … No Hair      выше … Dark Hor…
 3     2 Abin Sur      Male   blue        Ungaran  No Hair      ниже … DC Comics
 4     3 Abomination   Male   green       Human /… No Hair      выше … Marvel C…
 5     4 Abraxas       Male   blue        Cosmic … Black        <NA>   Marvel C…
 6     5 Absorbing Man Male   blue        Human    No Hair      выше … Marvel C…
 7     6 Adam Monroe   Male   blue        <NA>     Blond        <NA>   NBC - He…
 8     7 Adam Strange  Male   blue        Human    Blond        ниже … DC Comics
 9     8 Agent 13      Female blue        <NA>     Blond        ниже … Marvel C…
10     9 Agent Bob     Male   brown       Human    Brown        ниже … Marvel C…
# ℹ 724 more rows
# ℹ 3 more variables: `Skin color` <chr>, Alignment <chr>, Weight <chr>

Создайте из тиббла heroes новый тиббл, в котором числовые значения Height и Weight заменены на следующие строковые значения: если у супергероя внутри соответствующей группы по полу рост или масса выше среднего по колонке, то "выше среднего по X", если его/ее рост или масса ниже или равна среднему внутри соответствующей группы по полу, то "ниже среднего по X" , где X — соответствующий пол (Gender).

heroes %>%
  group_by(Gender) %>%
  mutate(across(c(Height, Weight), 
                   higher_than_average)) %>%
  ungroup() %>%
  mutate(across(c(Height, Weight), 
                   ~paste(., "по", Gender)))

# A tibble: 734 × 11
    ...1 name          Gender `Eye color` Race     `Hair color` Height Publisher
   <dbl> <chr>         <chr>  <chr>       <chr>    <chr>        <chr>  <chr>    
 1     0 A-Bomb        Male   yellow      Human    No Hair      выше … Marvel C…
 2     1 Abe Sapien    Male   blue        Icthyo … No Hair      ниже … Dark Hor…
 3     2 Abin Sur      Male   blue        Ungaran  No Hair      ниже … DC Comics
 4     3 Abomination   Male   green       Human /… No Hair      выше … Marvel C…
 5     4 Abraxas       Male   blue        Cosmic … Black        NA по… Marvel C…
 6     5 Absorbing Man Male   blue        Human    No Hair      выше … Marvel C…
 7     6 Adam Monroe   Male   blue        <NA>     Blond        NA по… NBC - He…
 8     7 Adam Strange  Male   blue        Human    Blond        ниже … DC Comics
 9     8 Agent 13      Female blue        <NA>     Blond        ниже … Marvel C…
10     9 Agent Bob     Male   brown       Human    Brown        ниже … Marvel C…
# ℹ 724 more rows
# ℹ 3 more variables: `Skin color` <chr>, Alignment <chr>, Weight <chr>
…
table(pub_good) %>%
  summary()

Number of cases in table: 677 
Number of factors: 2 
Test for independence of all factors:
    Chisq = 18.096, df = 1, p-value = 2.1e-05

Создайте в heroes новую колонку is_human логического типа, в которой будет TRUE, если супергерой принадлежит расе (Race) "Human", и FALSE в случае если супергерой принадлежит другой расе.

heroes %>%
  mutate(is_human = Race == "Human")

# A tibble: 734 × 12
    ...1 name          Gender `Eye color` Race     `Hair color` Height Publisher
   <dbl> <chr>         <chr>  <chr>       <chr>    <chr>         <dbl> <chr>    
 1     0 A-Bomb        Male   yellow      Human    No Hair         203 Marvel C…
 2     1 Abe Sapien    Male   blue        Icthyo … No Hair         191 Dark Hor…
 3     2 Abin Sur      Male   blue        Ungaran  No Hair         185 DC Comics
 4     3 Abomination   Male   green       Human /… No Hair         203 Marvel C…
 5     4 Abraxas       Male   blue        Cosmic … Black            NA Marvel C…
 6     5 Absorbing Man Male   blue        Human    No Hair         193 Marvel C…
 7     6 Adam Monroe   Male   blue        <NA>     Blond            NA NBC - He…
 8     7 Adam Strange  Male   blue        Human    Blond           185 DC Comics
 9     8 Agent 13      Female blue        <NA>     Blond           173 Marvel C…
10     9 Agent Bob     Male   brown       Human    Brown           178 Marvel C…
# ℹ 724 more rows
# ℹ 4 more variables: `Skin color` <chr>, Alignment <chr>, Weight <dbl>,
#   is_human <lgl>
…
